{
  "mrid":[
    {
      "name":"",
      "task_name":"",
      "uid_run":"",
      "start_date":"",
      "end_date":"",
      "billing_id":"",
      "params":{
        "key":"value"
      }
    }
  ]
}